Test Report 
------------

The Part: QA_COPYPART_1 Available And   Successfully made the Part: QA_COPYPART_1  Not Viewable

The Part: QA_COPYPART8 Available And   Successfully made the Part: QA_COPYPART8  Admin Only

The Part: QA_FORM1 Available And   Successfully made the Part: QA_FORM1  Orderable

