Test Report 
------------

The Part: QA_COPYPART_1 Available And   Successfully made the Part: QA_COPYPART_1  Orderable

The Part: QA_COPYPART8 Available And   Successfully made the Part: QA_COPYPART8  Orderable

The Part: QA_FORM1 Available And   Successfully made the Part: QA_FORM1  Admin Only

